…
## Where are the top 5 locations visited while touring?

```r
top_5<-touring_geo%>%
  filter(City != "NA")%>%
  count(City)%>%
  arrange(desc(n))
top_5
```

```
## # A tibble: 382 x 2
##    City                           n
##    <chr>                      <int>
##  1 New York City, New York       42
##  2 San Francisco, California     41
##  3 Philadelphia, Pennsylvania    23
##  4 West Hollywood, California    23
##  5 London, England               22
##  6 Los Angeles, California       22
##  7 Atlanta, Georgia              21
##  8 Chicago, Illinois             21
##  9 Dallas, Texas                 18
## 10 Milwaukee, Wisconsin          17
## # ... with 372 more rows
```
…
